## Interface: 30300
## Title: LanathelQueue
## Version: 1.9
## Notes: Генератор сценария укусов для Кровавой королевы Ланатель
## SavedVariablesPerCharacter: LQ_SavedOptions
## Author: Ritual
LanathelQueue.lua


